%YAML 1.1
%TAG !u! tag:unity3d.com,2011:
--- !u!181963792 &2655988077585873504
Preset:
  m_ObjectHideFlags: 0
  m_CorrespondingSourceObject: {fileID: 0}
  m_PrefabInstance: {fileID: 0}
  m_PrefabAsset: {fileID: 0}
  m_Name: CanvasScalerPortrait
  m_TargetType:
    m_NativeTypeID: 114
    m_ManagedTypePPtr: {fileID: 1980459831, guid: f70555f144d8491a825f0804e09c671c,
      type: 3}
    m_ManagedTypeFallback: 
  m_Properties:
  - target: {fileID: 0}
    propertyPath: m_Enabled
    value: 1
    objectReference: {fileID: 0}
  - target: {fileID: 0}
    propertyPath: m_EditorHideFlags
    value: 0
    objectReference: {fileID: 0}
  - target: {fileID: 0}
    propertyPath: m_EditorClassIdentifier
    value: 
    objectReference: {fileID: 0}
  - target: {fileID: 0}
    propertyPath: m_UiScaleMode
    value: 1
    objectReference: {fileID: 0}
  - target: {fileID: 0}
    propertyPath: m_ReferencePixelsPerUnit
    value: 100
    objectReference: {fileID: 0}
  - target: {fileID: 0}
    propertyPath: m_ScaleFactor
    value: 1
    objectReference: {fileID: 0}
  - target: {fileID: 0}
    propertyPath: m_ReferenceResolution.x
    value: 882
    objectReference: {fileID: 0}
  - target: {fileID: 0}
    propertyPath: m_ReferenceResolution.y
    value: 1920
    objectReference: {fileID: 0}
  - target: {fileID: 0}
    propertyPath: m_ScreenMatchMode
    value: 0
    objectReference: {fileID: 0}
  - target: {fileID: 0}
    propertyPath: m_MatchWidthOrHeight
    value: 1
    objectReference: {fileID: 0}
  - target: {fileID: 0}
    propertyPath: m_PhysicalUnit
    value: 3
    objectReference: {fileID: 0}
  - target: {fileID: 0}
    propertyPath: m_FallbackScreenDPI
    value: 96
    objectReference: {fileID: 0}
  - target: {fileID: 0}
    propertyPath: m_DefaultSpriteDPI
    value: 96
    objectReference: {fileID: 0}
  - target: {fileID: 0}
    propertyPath: m_DynamicPixelsPerUnit
    value: 1
    objectReference: {fileID: 0}
