%YAML 1.1
%TAG !u! tag:unity3d.com,2011:
--- !u!1045 &1
EditorBuildSettings:
  m_ObjectHideFlags: 0
  serializedVersion: 2
  m_Scenes:
  - enabled: 1
    path: Assets/Scenes/Splash.unity
    guid: 2cda990e2423bbf4892e6590ba056729
  - enabled: 1
    path: Assets/Scenes/Loader.unity
    guid: 2b59cb010cd259943b0376fa868d41ee
  - enabled: 1
    path: Assets/Scenes/Login.unity
    guid: ee4f4c63d45b3ac4090f8d6f1e87025c
  - enabled: 1
    path: Assets/Scenes/Menu.unity
    guid: 89185dd67a1e55347807c3685a7cd479
  m_configObjects: {}
